%YAML 1.1
%TAG !u! tag:unity3d.com,2011:
--- !u!114 &11400000
MonoBehaviour:
  m_ObjectHideFlags: 0
  m_CorrespondingSourceObject: {fileID: 0}
  m_PrefabInstance: {fileID: 0}
  m_PrefabAsset: {fileID: 0}
  m_GameObject: {fileID: 0}
  m_Enabled: 1
  m_EditorHideFlags: 0
  m_Script: {fileID: 11500000, guid: fda5810dce8b88341af693dbdb931c4c, type: 3}
  m_Name: Melee2
  m_EditorClassIdentifier: 
  Damage: 3
  Healt: 12
  Speed: 4
  SpriteColor: {r: 0.5471698, g: 0.534094, b: 0.46715912, a: 1}
  DetectionArea: 4
