%YAML 1.1
%TAG !u! tag:unity3d.com,2011:
--- !u!114 &11400000
MonoBehaviour:
  m_ObjectHideFlags: 0
  m_CorrespondingSourceObject: {fileID: 0}
  m_PrefabInstance: {fileID: 0}
  m_PrefabAsset: {fileID: 0}
  m_GameObject: {fileID: 0}
  m_Enabled: 1
  m_EditorHideFlags: 0
  m_Script: {fileID: 11500000, guid: fda5810dce8b88341af693dbdb931c4c, type: 3}
  m_Name: Melee1
  m_EditorClassIdentifier: 
  Damage: 2
  Healt: 10
  Speed: 6
  SpriteColor: {r: 1, g: 1, b: 1, a: 1}
  DetectionArea: 3.5
