{
    "name": "PlayerInputs",
    "maps": [
        {
            "name": "Default",
            "id": "387ba155-20cb-40cd-9e25-e16f26689fba",
            "actions": [
                {
                    "name": "ButtonAction",
                    "type": "Button",
                    "id": "02e77a1c-97f5-4e33-9fce-260aee935e5f",
                    "expectedControlType": "Button",
                    "processors": "",
                    "interactions": "",
                    "initialStateCheck": false
                },
                {
                    "name": "MovementAction",
                    "type": "Value",
                    "id": "4e25dd72-99fb-49c1-af36-3f08398ba611",
                    "expectedControlType": "Vector2",
                    "processors": "",
                    "interactions": "",
                    "initialStateCheck": true
                },
                {
                    "name": "PointerPosition",
                    "type": "Value",
                    "id": "b7a78b31-8297-4bda-9864-2eac9ed4d71e",
                    "expectedControlType": "Vector2",
                    "processors": "",
                    "interactions": "",
                    "initialStateCheck": true
                }
            ],
            "bindings": [
                {
                    "name": "",
                    "id": "b31234a9-259c-404c-bd68-69ab323cde63",
                    "path": "<Keyboard>/space",
                    "interactions": "",
                    "processors": "",
                    "groups": "Default",
                    "action": "ButtonAction",
                    "isComposite": false,
                    "isPartOfComposite": false
                },
                {
                    "name": "",
                    "id": "1de38163-ccce-492a-9e45-0aeb427126ff",
                    "path": "<Mouse>/rightButton",
                    "interactions": "Hold(duration=0.5)",
                    "processors": "",
                    "groups": "Default",
                    "action": "ButtonAction",
                    "isComposite": false,
                    "isPartOfComposite": false
                },
                {
                    "name": "",
                    "id": "cfe08b77-cad5-4895-ba0a-ab898eb02c6a",
                    "path": "<Gamepad>/buttonWest",
                    "interactions": "",
                    "processors": "",
                    "groups": "",
                    "action": "ButtonAction",
                    "isComposite": false,
                    "isPartOfComposite": false
                },
                {
                    "name": "WASD",
                    "id": "58b013c2-f3d8-469f-bfb4-ff882b84544b",
                    "path": "2DVector",
                    "interactions": "",
                    "processors": "NormalizeVector2",
                    "groups": "",
                    "action": "MovementAction",
                    "isComposite": true,
                    "isPartOfComposite": false
                },
                {
                    "name": "up",
                    "id": "314043ac-6431-4098-97ac-edcd913facba",
                    "path": "<Keyboard>/w",
                    "interactions": "",
                    "processors": "",
                    "groups": "Default",
                    "action": "MovementAction",
                    "isComposite": false,
                    "isPartOfComposite": true
                },
                {
                    "name": "down",
                    "id": "6b051f80-3562-4e5f-a2ba-032cf90261b3",
                    "path": "<Keyboard>/s",
                    "interactions": "",
                    "processors": "",
                    "groups": "Default",
                    "action": "MovementAction",
                    "isComposite": false,
                    "isPartOfComposite": true
                },
                {
                    "name": "left",
                    "id": "f13e6827-c066-49d4-89ba-92fbe1034cbb",
                    "path": "<Keyboard>/a",
                    "interactions": "",
                    "processors": "",
                    "groups": "Default",
                    "action": "MovementAction",
                    "isComposite": false,
                    "isPartOfComposite": true
                },
                {
                    "name": "right",
                    "id": "c9462403-e964-4444-bc08-71238fca62ab",
                    "path": "<Keyboard>/d",
                    "interactions": "",
                    "processors": "",
                    "groups": "Default",
                    "action": "MovementAction",
                    "isComposite": false,
                    "isPartOfComposite": true
                },
                {
                    "name": "Arrows",
                    "id": "8b58ade5-3dae-437f-af7d-76b2a8590084",
                    "path": "2DVector",
                    "interactions": "",
                    "processors": "",
                    "groups": "",
                    "action": "MovementAction",
                    "isComposite": true,
                    "isPartOfComposite": false
                },
                {
                    "name": "up",
                    "id": "db512ba4-c4b3-4fd2-8216-8c7cb7c53779",
                    "path": "<Keyboard>/upArrow",
                    "interactions": "",
                    "processors": "",
                    "groups": "",
                    "action": "MovementAction",
                    "isComposite": false,
                    "isPartOfComposite": true
                },
                {
                    "name": "down",
                    "id": "1b89a4e9-53e5-42af-a227-debae3e946d2",
                    "path": "<Keyboard>/downArrow",
                    "interactions": "",
                    "processors": "",
                    "groups": "",
                    "action": "MovementAction",
                    "isComposite": false,
                    "isPartOfComposite": true
                },
                {
                    "name": "left",
                    "id": "fdad9530-486a-406d-9398-5cd8c67923f2",
                    "path": "<Keyboard>/leftArrow",
                    "interactions": "",
                    "processors": "",
                    "groups": "",
                    "action": "MovementAction",
                    "isComposite": false,
                    "isPartOfComposite": true
                },
                {
                    "name": "right",
                    "id": "613639d1-3558-4b88-a221-08df6480df47",
                    "path": "<Keyboard>/rightArrow",
                    "interactions": "",
                    "processors": "",
                    "groups": "",
                    "action": "MovementAction",
                    "isComposite": false,
                    "isPartOfComposite": true
                },
                {
                    "name": "",
                    "id": "341b5ffc-5d37-4a19-8b4c-cf5b30767f46",
                    "path": "<Gamepad>/leftStick",
                    "interactions": "",
                    "processors": "",
                    "groups": "",
                    "action": "MovementAction",
                    "isComposite": false,
                    "isPartOfComposite": false
                },
                {
                    "name": "",
                    "id": "1a30caa1-78d6-4937-94fc-6defaac19335",
                    "path": "<Mouse>/position",
                    "interactions": "",
                    "processors": "",
                    "groups": "",
                    "action": "PointerPosition",
                    "isComposite": false,
                    "isPartOfComposite": false
                },
                {
                    "name": "",
                    "id": "c58027b4-8225-4239-87c7-4b18b159c07a",
                    "path": "<Touchscreen>/primaryTouch/position",
                    "interactions": "",
                    "processors": "",
                    "groups": "",
                    "action": "PointerPosition",
                    "isComposite": false,
                    "isPartOfComposite": false
                }
            ]
        }
    ],
    "controlSchemes": [
        {
            "name": "Default",
            "bindingGroup": "Default",
            "devices": []
        }
    ]
}